%!PS
% PostScript to draw codewheels and codestrips for use in optical encoders.
% Print on a transparency for an inexpensive quadrature encoder.
%
% Copyright (C) 2001 David I. Lehn <dlehn@vt.edu>
%
% This library is free software; you can redistribute it and/or
% modify it under the terms of the GNU Lesser General Public
% License as published by the Free Software Foundation; either
% version 2.1 of the License, or (at your option) any later version.
%
% This library is distributed in the hope that it will be useful,
% but WITHOUT ANY WARRANTY; without even the implied warranty of
% MERCHANTABILITY or FITNESS FOR A PARTICULAR PURPOSE.  See the GNU
% Lesser General Public License for more details.
%
% You should have received a copy of the GNU Lesser General Public
% License along with this library; if not, write to the Free Software
% Foundation, Inc., 59 Temple Place, Suite 330, Boston, MA  02111-1307  USA

/inch { 72 mul } def
/mm { 25.4 div 1 inch mul } def
/ptomm { 1 inch div 25.4 mul } def
/pi 3.14159 def

%  x  y  (str)
/center_show {
	dup stringwidth pop 2 div   %  compute half string width
	4 -1 roll exch sub          %  decrement x position
	3 -1 roll moveto            %  set current point
	show                        %  image string
} def

/circumfrence { 2 pi mul mul } def

/center {
	newpath
	0.1 mm setlinewidth         % defaultwert 0.5 mm
	7.5 mm 0 mm moveto
	-7.5 mm 0 mm lineto
	0 mm 7.5 mm moveto
	0 mm -7.5 mm lineto
	stroke

	newpath
	%[ width width ] 0  setdash % dash pattern
	%height setlinewidth
	0 0  % x y center
	2 mm % radius               % defaultwert 5 mm
	0 360 arc % start/end angles
	stroke
} def

% call: ocr height width spacing spokes
/spokes0 {
	/spacing exch def
	/width exch def
	/height exch def
	/ocr exch def

	/inner ocr height 2 div sub def
	/outer ocr height 2 div add def

	/cir ocr circumfrence def
	/aspacing 360 spacing cir div mul def

	newpath
	width setlinewidth
	0 aspacing 360 {
		/idx exch def %  save angle
		idx cos inner mul idx sin inner mul moveto
		idx cos outer mul idx sin outer mul lineto
	} for
	stroke
} def

% call: width spacing ocr height spokes
/spokes {
	/height exch def
	/ocr exch def
	/spacing exch def
	/width exch def

	/inner ocr height 2 div sub def
	/outer inner height add def

	/cir ocr circumfrence def
	/aspacing 360 spacing cir div mul def
	/awidth 360 width cir div mul def

	0 setlinewidth
	0 aspacing 360 {
		/idx exch def %  save angle
		newpath
		gsave
			%0 0 moveto
			idx rotate
			inner 0 moveto
			% line up & arc ccw
			0 0  % x y center
			outer % radius
			0 awidth arc % start/end angles
			% line down & arc cw
			0 0  % x y center
			inner % radius
			awidth 0 arcn % start/end angles
			%stroke
			fill
		grestore
	} for
} def

% call: str1 str2 cat = str1str2
/cat {
	dup length % str1 str2 len2
	2 index length % str1 str2 len2 len1
	add
	/str12 exch string def % str1 str2  str12: ()
	exch dup length % str2 str1 len1   ()
	str12 exch % str2 str1 str12 len1   ()
	4 -1 roll % str1 str12 len1 str2   ()
	putinterval % str1   (...str2)
	str12 exch 0 exch % str12 0 str1
	putinterval % (str1str2)
	str12
} def

% call: slots width spacing ocr height wheelinfo
/wheelinfo {
	/height exch def
	/ocr exch def
	/spacing exch def % width between spokes
	/width exch def % width of spoke
	/slots exch def

	newpath
	/Times-Roman findfont
	2 mm scalefont
	setfont
	gsave
		0 0 moveto
		0 rotate
		0 mm 8 mm slots 10 string cvs ( slots) cat center_show
		90 rotate
		0 mm 8 mm ocr ptomm 10 string cvs ( o.c.r.) cat center_show
		90 rotate
		0 mm 8 mm width ptomm 10 string cvs ( width) cat center_show
		90 rotate
		0 mm 8 mm spacing ptomm 10 string cvs ( spacing) cat center_show
		stroke
	grestore
} def

% call: slots width spacing ocr height codewheel
/codewheel {
	/height exch def
	/ocr exch def
	/spacing exch def % width between spokes
	/width exch def % width of spoke
	/slots exch def

	0 setgray
	center
	width spacing ocr height spokes
	slots width spacing ocr height wheelinfo
} def

% call: slots ocr height codewheel_slots
/codewheel_slots {
	/height exch def
	/ocr exch def

	/slots exch def
	/cir ocr circumfrence def
	/spacing cir slots div def
	/width spacing 2 div def

	slots width spacing ocr height codewheel
} def

% call: slots width spacing height codewheel_swsh
/codewheel_swsh {
	/height exch def
	/spacing exch def
	/width exch def
	/slots exch def

	/ocr slots spacing mul 2 pi mul div def

	slots width spacing ocr height codewheel
} def

% call: width spacing stripinfo
/stripinfo {
	/spacing exch def % width between spokes
	/width exch def % width of spoke

	newpath
	/Times-Roman findfont
	2 mm scalefont
	setfont
	gsave
		90 rotate
		0 0 moveto
		0 mm 4 mm width ptomm 10 string cvs ( width) cat center_show
		0 2 mm moveto
		0 mm 2 mm spacing ptomm 10 string cvs ( spacing) cat center_show
		stroke
	grestore
} def

% call: [on off] len height codestrip_len
/codestrip_len {
	/height exch def
	/len exch def
	/pattern exch def

	newpath
	height setlinewidth
	0 0 moveto
	pattern 0 setdash
	len 0 lineto
	stroke
	[] 0 setdash
	pattern 0 get dup pattern 1 get add stripinfo
} def

% call: [on off] slots height codestrip_slots
/codestrip_slots {
	/height exch def
	/slots exch def
	/pattern exch def

	pattern slots pattern 0 get pattern 1 get add mul height codestrip_len
} def

% center of page
%4.25 inch 5.5 inch translate
%
%%% Erste Reihe
%
30 mm 30 mm translate
394 21.5 mm 5 mm codewheel_slots

50 mm 0 mm translate
125 20.0 mm 5 mm codewheel_slots

50 mm 0 mm translate
250 20.0 mm 5 mm codewheel_slots

50 mm 0 mm translate
500 20.0 mm 5 mm codewheel_slots


%%% Zweite Reihe
-150 mm 50 mm translate
36 10 mm 2 mm codewheel_slots

50 mm 0 mm translate
128 10 mm 3 mm codewheel_slots

50 mm 0 mm translate
128 15 mm 3 mm codewheel_slots

50 mm 0 mm translate
128 20 mm 3 mm codewheel_slots

%%% Dritte Reihe
-150 mm 50 mm translate
50 1.6 mm 3.2 mm 3 mm codewheel_swsh

50 mm 0 mm translate
128 0.3 mm 0.6 mm 3 mm codewheel_swsh

50 mm 0 mm translate
125 0.3 mm 0.5 mm 5 mm codewheel_swsh

50 mm 0 mm translate
125 0.4 mm 1.0 mm 5 mm codewheel_swsh

%%%
-150 mm 50 mm translate
70 0.5 mm 2 mm 3 mm codewheel_swsh

50 mm 0 mm translate
17 15 mm 5 mm codewheel_slots

50 mm 0 mm translate
128 0.5 mm 0.8 mm 3 mm codewheel_swsh

50 mm 0 mm translate
417 0.1 mm 0.338 mm 5 mm codewheel_swsh

%%%
-165 mm 50 mm translate
[0.3 mm 0.3 mm] 50 20 mm codestrip_slots

50 mm 0 mm translate
[1.0 mm 1.0 mm] 35 mm 20 mm codestrip_len

50 mm 0 mm translate
[1.6 mm 1.6 mm] 35 mm 20 mm codestrip_len

50 mm 0 mm translate
[0.3 mm 0.5 mm] 35 mm 20 mm codestrip_len

showpage
